<svg xmlns="http://www.w3.org/2000/svg" xmlns:xlink="http://www.w3.org/1999/xlink" width="994.59" height="473.259" viewBox="0 0 994.59 473.259">
  <defs>
    <clipPath id="clip-path">
      <path id="Trazado_3" data-name="Trazado 3" d="M-595.807-384.823l26.227,50.174,236.892-8.863,22.372,167.426-116.91,65.671-126.2-.829,3.421,24.3-7.6,19.893-9.625,29.525L-385.368,0s140.724-114.745,145.054-118.353,39.692-170.313,41.857-181.859-67.115-105.363-72.166-111.136c-4.708-5.381-103.6-13.588-122.285-21.736-1.094-.477-69.486-40.175-69.486-40.175s-92.481,54.218-97.532,57.1S-595.807-384.823-595.807-384.823Z" transform="translate(1730 1150.26)" fill="#1d1f27" stroke="#1d1f27" stroke-width="1"/>
    </clipPath>
  </defs>
  <g id="Logo" transform="translate(-537.002 -677)">
    <g id="Hawk">
      <path id="Hawk-2" data-name="Hawk" d="M-726.156-14.269-623.1-31.71l76.1-93.544s5.066-5.418,15.52-10.078c9.8-4.369,24.958-7.972,29.431-9.469,3.672-1.229,12.372-2.755,23.125-6.626,15-5.4,20.624-4.563,33.6-13.61s19.35-14.714,22.236-21.209c.74-1.666,4.467-7.657,9.276-15.134,3.818-5.937,8.3-13.083,13.916-18.516,13.07-12.653,19.4-15.072,31.837-20.417s16.006-2.7,16.006-2.7,7.533,4.21,8.626,5.405,6.1,8.856,6.1,8.856-1.366-22.317-1.643-22.957c-1.749-4.912-3.923-13.188-16.689-18.354s-24.028-1.335-36.33-1.78-12.878,0-12.878,0-142.639-4.7-151.075-5.858-24.506-21.852-24.506-21.852-19.375-19.109-21.5-21.586-37.455-58.455-37.455-58.455a58.961,58.961,0,0,0-12.53-13.116,65.289,65.289,0,0,0-16.809-8.228L-1194-412.228a236.959,236.959,0,0,0,58.553,38.586c35.349,16.372,75.39,25.053,82.842,26.9s37.1,4.113,37.1,4.113,130.612-4.728,143.771-4.113,16.929,2.092,15.413,3.1-49.777,8.086-49.777,8.086a56.858,56.858,0,0,0,16.929,8.591c10.233,3.222,29.31,6.57,29.31,6.57s37.947-.6,41.74,0,1.972,3.537,1.972,3.537l-245.852,36.89s52.809,27.542,93.742,29.563,79.087,0,79.087,0,48.892-13.455,77.318-17.94,36.385,0,36.385,0l-55.481,22.08s37.686,3.693,52.954,2.43,71.2-18.854,44.723-5.306-163.48,65.443-163.48,65.443,34.111,13.9,61.147,13.9,60.136-8.086,60.136-8.086,16.108-5.432,33.353-13.392,43.186-24.171,38.154-18.445S-735.282-169.8-735.282-169.8s22.993-7.77,38.912-15.666,33.955-30.523,24.762-15.918-57.862,87.931-57.862,87.931,29.058.063,51.546-10.612,38.406-32.09,38.406-32.09l27.289-32.09a26.826,26.826,0,0,1,3.032,0c1.769.253,13.408,31.689,14.655,35.122s3.271,7.5-1.263,15.16S-726.156-14.269-726.156-14.269Z" transform="translate(1731 1150)" fill="#1d1f27"/>
    </g>
    <g id="SemiCircle">
      <g id="SemiCircle-2" data-name="SemiCircle" clip-path="url(#clip-path)">
        <g id="Trazado_2" data-name="Trazado 2" transform="translate(1068 710.259)" fill="none">
          <path d="M206.5,0C320.547,0,413,92.453,413,206.5S320.547,413,206.5,413,0,320.547,0,206.5,92.453,0,206.5,0Z" stroke="none"/>
          <path d="M 206.5 21 C 104.2149353027344 21 21 104.2149353027344 21 206.5 C 21 308.7850646972656 104.2149353027344 392 206.5 392 C 308.7850646972656 392 392 308.7850646972656 392 206.5 C 392 104.2149353027344 308.7850646972656 21 206.5 21 M 206.5 0 C 320.5467834472656 0 413 92.45321655273438 413 206.5 C 413 320.5467834472656 320.5467834472656 413 206.5 413 C 92.45321655273438 413 0 320.5467834472656 0 206.5 C 0 92.45321655273438 92.45321655273438 0 206.5 0 Z" stroke="none" fill="#1d1f27"/>
        </g>
      </g>
    </g>
    <g id="Circle">
      <circle id="circle-2" data-name="circle" cx="22.5" cy="22.5" r="22.5" transform="translate(1122 745)" fill="none"/>
    </g>
  </g>
</svg>
